Measurement Chains • kwb.geosalz
…
# Define target directory for download of measurement chain `.csv` files
target_directory <- tempdir()

# Download of measurement mhain `.csv` files from SFTP server
csv_files <- kwb.geosalz::download_measurementchains_data(
  sftp_paths = mc_files$sftp_path,
  target_directory,
  debug = TRUE
)
#> Download 366 measurement chains files (using 2 CPU cores) ... ok. (12.37s)

csv_files
#> # A tibble: 366 × 3
#>    file_id sftp_path                       local_path                           
#>      <int> <chr>                           <chr>                                
#>  1       1 K10/4182001-2022-07-08-0506.csv C:/Users/RUNNER~1/AppData/Local/Temp…
#>  2       2 K10/4182001-2022-07-09-0506.csv C:/Users/RUNNER~1/AppData/Local/Temp…
#>  3       3 K10/4182001-2022-07-10-0507.csv C:/Users/RUNNER~1/AppData/Local/Temp…
#>  4       4 K10/4182001-2022-07-11-0507.csv C:/Users/RUNNER~1/AppData/Local/Temp…
#>  5       5 K10/4182001-2022-07-12-0506.csv C:/Users/RUNNER~1/AppData/Local/Temp…
#>  6       6 K10/4182001-2022-07-13-0506.csv C:/Users/RUNNER~1/AppData/Local/Temp…
#>  7       7 K10/4182001-2022-07-14-0506.csv C:/Users/RUNNER~1/AppData/Local/Temp…
#>  8       8 K10/4182001-2022-07-15-0507.csv C:/Users/RUNNER~1/AppData/Local/Temp…
#>  9       9 K10/4182001-2022-07-16-0507.csv C:/Users/RUNNER~1/AppData/Local/Temp…
#> 10      10 K10/4182001-2022-07-17-0507.csv C:/Users/RUNNER~1/AppData/Local/Temp…
#> # … with 356 more rows
…
## CSV import using multiple CPU cores
mc_data_parallel <- kwb.geosalz::read_measurementchains_data(
  csv_files,
  run_parallel = TRUE,
  debug = TRUE
)
#> Importing 366 measurement chains files (using 2 CPU cores) ... ok. (6.09s)

### Just test if both imports give identical results
identical(mc_data_single, mc_data_parallel)
#> [1] TRUE

mc_data_parallel
#> # A tibble: 2,928 × 5
#>    file_id sensor_id datum_uhrzeit       parameter      messwert
#>      <int>     <int> <dttm>              <chr>             <dbl>
#>  1       1   4182001 2022-07-07 05:00:00 Leitfaehigkeit      971
#>  2       1   4182001 2022-07-07 11:00:00 Leitfaehigkeit      974
#>  3       1   4182001 2022-07-07 17:00:00 Leitfaehigkeit      982
#>  4       1   4182001 2022-07-07 23:00:00 Leitfaehigkeit      983
#>  5       2   4182001 2022-07-08 05:00:00 Leitfaehigkeit      982
#>  6       2   4182001 2022-07-08 11:00:00 Leitfaehigkeit      985
#>  7       2   4182001 2022-07-08 17:00:00 Leitfaehigkeit      994
#>  8       2   4182001 2022-07-08 23:00:00 Leitfaehigkeit      995
#>  9       3   4182001 2022-07-09 05:00:00 Leitfaehigkeit      996
#> 10       3   4182001 2022-07-09 11:00:00 Leitfaehigkeit     1000
#> # … with 2,918 more rows
…
